<?xml version="1.0" encoding="UTF-8" standalone="no"?>
<!-- Created with Inkscape (http://www.inkscape.org/) -->

<svg
   xmlns:dc="http://purl.org/dc/elements/1.1/"
   xmlns:cc="http://creativecommons.org/ns#"
   xmlns:rdf="http://www.w3.org/1999/02/22-rdf-syntax-ns#"
   xmlns:svg="http://www.w3.org/2000/svg"
   xmlns="http://www.w3.org/2000/svg"
   xmlns:sodipodi="http://sodipodi.sourceforge.net/DTD/sodipodi-0.dtd"
   xmlns:inkscape="http://www.inkscape.org/namespaces/inkscape"
   width="2cm"
   height="2cm"
   viewBox="0 0 70.866142 70.866142"
   id="svg2"
   version="1.1"
   inkscape:version="0.91 r13725"
   sodipodi:docname="Vertical5x.svg">
  <defs
     id="defs4" />
  <sodipodi:namedview
     id="base"
     pagecolor="#ffffff"
     bordercolor="#666666"
     borderopacity="1.0"
     inkscape:pageopacity="0.0"
     inkscape:pageshadow="2"
     inkscape:zoom="3.8693299"
     inkscape:cx="29.403473"
     inkscape:cy="8.6830685"
     inkscape:document-units="px"
     inkscape:current-layer="g4148"
     showgrid="false"
     inkscape:window-width="1280"
     inkscape:window-height="657"
     inkscape:window-x="-8"
     inkscape:window-y="-8"
     inkscape:window-maximized="1"
     units="cm" />
  <metadata
     id="metadata7">
    <rdf:RDF>
      <cc:Work
         rdf:about="">
        <dc:format>image/svg+xml</dc:format>
        <dc:type
           rdf:resource="http://purl.org/dc/dcmitype/StillImage" />
        <dc:title></dc:title>
      </cc:Work>
    </rdf:RDF>
  </metadata>
  <g
     inkscape:label="Capa 1"
     inkscape:groupmode="layer"
     id="layer1"
     transform="translate(0,-981.49603)">
    <g
       id="g4148"
       transform="matrix(2.0105202,0,0,1.9974293,0.82134073,-1049.7677)">
      <rect
         y="1016.8735"
         x="-1.0024475"
         height="35.544209"
         width="1.1878527"
         id="rect4136"
         style="opacity:1;fill:#6289d0;fill-opacity:0.52994013" />
      <rect
         style="opacity:1;fill:#999999;fill-opacity:0.32335329"
         id="rect4138"
         width="1.1878527"
         height="35.544209"
         x="6.0470858"
         y="1016.8735" />
      <rect
         y="1016.8735"
         x="13.096618"
         height="35.544209"
         width="1.1878527"
         id="rect4140"
         style="opacity:1;fill:#999999;fill-opacity:0.32335329" />
      <rect
         style="opacity:1;fill:#999999;fill-opacity:0.32335329"
         id="rect4142"
         width="1.1878527"
         height="35.544209"
         x="20.146151"
         y="1016.8735" />
      <rect
         y="1016.8735"
         x="27.195684"
         height="35.544209"
         width="1.1878527"
         id="rect4144"
         style="opacity:1;fill:#999999;fill-opacity:0.32335329" />
      <rect
         style="opacity:1;fill:#6289d0;fill-opacity:0.52994013"
         id="rect4146"
         width="1.1878527"
         height="35.544209"
         x="34.245216"
         y="1016.8735" />
    </g>
  </g>
</svg>
